Categories:Writing
License:GPL-3.0-only
Web Site:https://github.com/mpcjanssen/simpletask-android/blob/HEAD/src/main/assets/index.en.md
Source Code:https://github.com/mpcjanssen/simpletask-android
Issue Tracker:https://github.com/mpcjanssen/simpletask-android/issues
Changelog:https://github.com/mpcjanssen/simpletask-android/blob/HEAD/app/src/main/assets/changelog.en.md

Name:Simpletask
Auto Name:Simpletask donation key
Summary:Todo list manager
Description:
A simple task list manager that strives to have just enough features to do GTD
(the Getting Things Done methodology), but no more.

Based on the [http://todotxt.com todo.txt] app so all info is stored in a single
text file called todo.txt.

Note that, with this version, you will need to take care of backups yourself.

* Todo list stored in the documented todo.txt format
* Comprehensive filtering and multi sort
* Create calendar reminders for specific tasks directly from the app
* Select on or more tasks and press overflow menu->Add reminder
* Share the complete tasklist or selected tasks using the Android share feature
* Tasks can deferred into the future. Combined with the "Creation date in future" sort it allows you to get tasks out of your face (as in 1MTD/MYN)
.

Repo Type:git
Repo:https://github.com/mpcjanssen/simpletask-android.git

Build:3.2.2-cloudless (unknown),1053
    commit=93a8922b2cd4696f49214ae46b011a1f5d7aadb8
    gradle=cloudless

Build:3.2.3,1054
    commit=3_2_3
    gradle=cloudless

Build:4.0.3,1058
    commit=4_0_3
    gradle=cloudless

Build:4.0.5,1060
    commit=4_0_5
    gradle=cloudless

Build:4.0.7,1062
    commit=4_0_7
    gradle=cloudless

Build:4.0.10,1065
    disable=insists on having old gradle version
    commit=4_0_10
    gradle=cloudless

Build:4.1.1,1067
    commit=3b99936
    gradle=cloudless

Build:4.1.3,1069
    commit=4_1_3
    init=rm libs/*.jar
    gradle=cloudless

Build:4.1.4,1070
    commit=4.1.4
    init=rm libs/*.jar
    gradle=cloudless

Build:4.1.5,1071
    commit=4.1.5
    init=rm libs/*.jar
    gradle=cloudless

Build:4.1.6,1072
    commit=4.1.6
    init=rm libs/*.jar
    gradle=cloudless

Build:4.1.7,1073
    commit=4.1.7
    init=rm libs/*.jar
    gradle=cloudless

Build:4.1.8,1074
    commit=4.1.8
    init=rm libs/*.jar
    gradle=cloudless

Build:4.1.9,1075
    commit=4.1.9
    init=rm libs/*.jar
    gradle=cloudless

Build:4.1.10,1076
    commit=4.1.10
    init=rm libs/*.jar
    gradle=cloudless

Build:4.1.11,1077
    commit=4.1.11
    init=rm libs/*.jar
    gradle=cloudless

Build:4.1.12,1078
    commit=4.1.12
    init=rm libs/*.jar
    gradle=cloudless

Build:4.1.13,1079
    commit=4.1.13
    init=rm libs/*.jar
    gradle=cloudless

Build:4.1.14,1080
    commit=4.1.14
    init=rm libs/*.jar
    gradle=cloudless

Build:4.1.15,1081
    commit=4.1.15
    init=rm libs/*.jar
    gradle=cloudless

Build:4.1.16,1082
    commit=4.1.16
    init=rm libs/*.jar
    gradle=cloudless

Build:4.1.17,1083
    commit=4.1.17
    init=rm libs/*.jar
    gradle=cloudless
    scanignore=pelican

Build:4.1.18,1084
    commit=4.1.18
    init=rm libs/*.jar
    gradle=cloudless
    scanignore=pelican

Build:4.1.19,1085
    commit=4.1.19
    init=rm libs/*.jar
    gradle=cloudless
    scanignore=pelican

Build:4.2.2,1088
    commit=4.2.2
    init=rm libs/*.jar
    gradle=cloudless
    scanignore=pelican

Build:4.2.3,1089
    commit=4.2.3
    init=rm libs/*.jar
    gradle=cloudless
    scanignore=pelican

Build:4.2.4,1090
    commit=4.2.4
    init=rm libs/*.jar
    gradle=cloudless
    scanignore=pelican

Build:4.2.5,1091
    commit=4.2.5
    init=rm libs/*.jar
    gradle=cloudless
    scanignore=pelican

Build:5.0.0RC3,1507
    commit=5.0.0RC3
    init=rm libs/*.jar
    gradle=cloudless
    scanignore=pelican

Build:5.0.1,1509
    commit=5.0.1
    init=rm libs/*.jar
    gradle=cloudless
    scanignore=pelican

Build:5.0.2,1510
    commit=5.0.2
    init=rm libs/*.jar
    gradle=cloudless
    scanignore=pelican

Build:5.0.3,1511
    commit=5.0.3
    init=rm libs/*.jar
    gradle=cloudless
    scanignore=pelican

Build:5.0.4,1512
    commit=5.0.4
    init=rm libs/*.jar
    gradle=cloudless
    scanignore=pelican

Build:5.0.7,1515
    commit=5.0.7
    init=rm libs/*.jar
    gradle=cloudless
    scanignore=pelican

Build:5.0.9,1517
    commit=5.0.9
    init=rm libs/*.jar
    gradle=cloudless
    scanignore=pelican

Build:5.1.0,1518
    commit=5.1.0
    init=rm libs/*.jar
    gradle=cloudless
    scanignore=pelican

Build:5.1.4,1522
    commit=5.1.4
    init=rm libs/*.jar
    gradle=cloudless
    scanignore=pelican

Build:5.1.5,1523
    commit=5.1.5
    init=rm libs/*.jar
    gradle=cloudless
    scanignore=pelican

Build:5.1.6,1524
    commit=5.1.6
    init=rm libs/*.jar
    gradle=cloudless
    scanignore=pelican

Build:5.1.7,1525
    commit=5.1.7
    init=rm libs/*.jar
    gradle=cloudless
    scanignore=pelican

Build:5.1.8,1526
    commit=5.1.8
    init=rm libs/*.jar
    gradle=cloudless
    scanignore=pelican

Build:5.2.0,1527
    commit=5.2.0
    init=rm libs/*.jar
    gradle=cloudless
    scanignore=pelican

Build:5.2.6,1534
    disable=jar
    commit=5.2.6
    init=rm libs/*.jar
    gradle=cloudless
    scanignore=pelican

Build:5.2.8,1536
    commit=5.2.8
    init=rm libs/*.jar
    gradle=cloudless

Build:5.2.10,1538
    commit=5.2.10
    init=rm libs/*.jar
    gradle=cloudless

Build:5.2.11,1539
    commit=5.2.11
    init=rm libs/*.jar
    gradle=cloudless

Build:5.2.12,1540
    commit=5.2.12
    init=rm libs/*.jar
    gradle=cloudless

Build:5.2.13,1541
    commit=5.2.13
    init=rm libs/*.jar
    gradle=cloudless

Build:5.2.15,1543
    commit=5.2.15
    init=rm libs/*.jar
    gradle=cloudless

Build:5.2.16,1544
    commit=5.2.16
    init=rm libs/*.jar
    gradle=cloudless

Build:5.2.17,1545
    commit=5.2.17
    init=rm libs/*.jar
    gradle=cloudless

Build:5.2.18,1546
    commit=5.2.18
    init=rm libs/*.jar
    gradle=cloudless

Build:5.3.0,1547
    commit=5.3.0
    init=rm libs/*.jar
    gradle=cloudless

Build:5.3.1,1548
    commit=5.3.1
    init=rm libs/*.jar
    gradle=cloudless

Build:5.3.2,1549
    commit=5.3.2
    init=rm libs/*.jar
    gradle=cloudless

Build:5.3.3,1550
    commit=5.3.3
    init=rm libs/*.jar
    gradle=cloudless

Build:5.3.4,1551
    commit=5.3.4
    init=rm libs/*.jar
    gradle=cloudless

Build:5.4.1,1553
    commit=5.4.1
    init=rm libs/*.jar
    gradle=cloudless

Build:5.4.2,1554
    commit=5.4.2
    init=rm libs/*.jar
    gradle=cloudless

Build:5.4.3,1555
    commit=5.4.3
    init=rm libs/*.jar
    gradle=cloudless

Build:5.4.4,1556
    commit=5.4.4
    init=rm libs/*.jar
    gradle=cloudless

Build:5.4.6,1558
    commit=5.4.6
    init=rm libs/*.jar
    gradle=cloudless

Build:5.4.7,1559
    commit=5.4.7
    init=rm libs/*.jar
    gradle=cloudless

Build:5.5.2,1564
    commit=5.5.2
    init=rm libs/*.jar
    gradle=cloudless

Build:5.5.3,1566
    commit=5.5.3
    init=rm libs/*.jar
    gradle=cloudless

Build:5.5.4,1567
    commit=5.5.4
    init=rm libs/*.jar
    gradle=cloudless

Build:5.5.5,1568
    commit=5.5.5
    init=rm libs/*.jar
    gradle=cloudless

Build:5.5.6,1569
    commit=5.5.6
    init=rm libs/*.jar
    gradle=cloudless

Build:5.5.7,1570
    commit=5.5.7
    init=rm libs/*.jar
    gradle=cloudless

Build:6.0.2,1576
    commit=6.0.2
    init=rm libs/*.jar
    gradle=cloudless

Build:6.0.3,1577
    commit=6.0.3
    init=rm libs/*.jar
    gradle=cloudless

Build:6.0.4,1578
    commit=6.0.4
    init=rm libs/*.jar
    gradle=cloudless

Build:6.0.5,1579
    commit=6.0.5
    init=rm libs/*.jar
    gradle=cloudless

Build:6.0.6,1580
    commit=6.0.6
    init=rm libs/*.jar
    gradle=cloudless

Build:6.0.7,1581
    commit=6.0.7
    init=rm libs/*.jar
    gradle=cloudless

Build:6.0.8,1582
    commit=6.0.8
    init=rm libs/*.jar
    gradle=cloudless

Build:6.1.1,3000
    disable=bad tag
    commit=6.1.1
    init=rm libs/*.jar
    gradle=cloudless

Build:6.2.0,3001
    commit=6.2.0
    init=rm libs/*.jar
    gradle=cloudless

Build:6.3.1,3003
    commit=6.3.1
    init=rm libs/*.jar
    gradle=cloudless

Build:6.3.2,3004
    commit=6.3.2
    init=rm libs/*.jar
    gradle=cloudless

Build:6.3.4,3006
    commit=6.3.4
    init=rm libs/*.jar
    gradle=cloudless

Build:6.3.5,3007
    commit=6.3.5
    init=rm libs/*.jar
    gradle=cloudless

Build:6.3.6,3008
    commit=6.3.6
    init=rm libs/*.jar
    gradle=cloudless

Build:7.0.1,3011
    commit=7.0.1
    init=rm libs/*.jar
    gradle=cloudless

Build:7.0.2,3012
    commit=7.0.2
    init=rm libs/*.jar
    gradle=cloudless

Build:7.0.3,3013
    commit=7.0.3
    init=rm libs/*.jar
    gradle=cloudless

Build:7.0.4,3014
    commit=7.0.4
    init=rm libs/*.jar
    gradle=cloudless

Build:7.0.5,3015
    commit=7.0.5
    init=rm libs/*.jar
    gradle=cloudless

Build:7.0.6,3016
    commit=7.0.6
    init=rm libs/*.jar
    gradle=cloudless

Build:7.0.7,3017
    commit=7.0.7
    init=rm libs/*.jar
    gradle=cloudless

Build:7.0.9,3019
    commit=7.0.9
    init=rm libs/*.jar
    gradle=cloudless

Build:7.0.10,3020
    commit=7.0.10
    init=rm libs/*.jar
    gradle=cloudless

Build:7.0.12,3022
    commit=7.0.12
    init=rm libs/*.jar
    gradle=cloudless

Build:7.0.13,3023
    commit=7.0.13
    init=rm libs/*.jar
    gradle=cloudless

Build:7.0.14,3024
    commit=7.0.14
    init=rm libs/*.jar
    gradle=cloudless

Build:7.1.0,3027
    commit=7.1.0
    init=rm libs/*.jar
    gradle=cloudless

Build:7.1.1,3028
    commit=7.1.1
    init=rm libs/*.jar
    gradle=cloudless

Build:7.2.1,3030
    commit=7.2.1
    init=rm libs/*.jar
    gradle=cloudless

Build:7.2.2,3031
    commit=7.2.2
    init=rm libs/*.jar
    gradle=cloudless

Build:8.0.0,3032
    commit=8.0.0
    init=rm libs/*.jar
    gradle=cloudless

Build:8.0.3,3035
    commit=8.0.3
    init=rm libs/*.jar
    gradle=cloudless

Build:8.0.6,3037
    commit=8.0.6
    init=rm libs/*.jar
    gradle=cloudless

Build:8.1.0,3038
    commit=8.1.0
    init=rm libs/*.jar
    gradle=cloudless

Build:8.1.2,3041
    commit=8.1.2
    init=rm libs/*.jar
    gradle=cloudless

Build:8.2.0,3044
    commit=8.2.0
    init=rm libs/*.jar
    gradle=cloudless

Build:8.2.1,3046
    commit=8.2.1
    init=rm libs/*.jar
    gradle=cloudless

Build:8.2.2,3047
    commit=8.2.2
    init=rm libs/*.jar
    gradle=cloudless

Build:8.3.0,3052
    commit=8.3.0
    init=rm libs/*.jar
    gradle=cloudless

Build:8.3.1,3053
    commit=8.3.1
    init=rm libs/*.jar
    gradle=cloudless

Build:9.0.0,3054
    commit=9.0.0
    init=rm libs/*.jar
    gradle=cloudless

Build:9.0.1,3055
    commit=9.0.1
    init=rm libs/*.jar
    gradle=cloudless

Build:9.0.2,3056
    commit=9.0.2
    subdir=app
    gradle=cloudless
    rm=app/libs/*.jar

Build:9.0.5,3059
    disable=binary at .gradle/3.5/file-changes/last-build.bin
    commit=9.0.5
    subdir=app
    gradle=cloudless
    rm=app/libs/*.jar

Build:9.0.6,3060
    disable=binary at .gradle/3.5/file-changes/last-build.bin
    commit=9.0.6
    subdir=app
    gradle=cloudless
    rm=app/libs/*.jar

Build:9.0.7,3061
    commit=9.0.7
    subdir=app
    gradle=cloudless
    rm=app/libs/*.jar

Build:10.0.3,3069
    commit=10.0.3
    subdir=app
    gradle=cloudless

Build:10.0.4,3072
    disable=Could not get unknown property 'storeServiceAccount' for object of type de.triplet.gradle.play.PlayAccountConfig
    commit=10.0.4
    subdir=app
    gradle=cloudless

Build:10.0.5,3073
    commit=10.0.5
    subdir=app
    gradle=cloudless

Build:10.0.6,3074
    commit=10.0.6
    subdir=app
    gradle=cloudless

Build:10.0.7,3075
    commit=10.0.7
    subdir=app
    gradle=cloudless

Build:10.1.0,3076
    commit=10.1.0
    subdir=app
    gradle=cloudless

Build:10.1.3,3079
    commit=10.1.3
    subdir=app
    gradle=cloudless

Build:10.1.13,3089
    commit=10.1.13
    subdir=app
    gradle=cloudless

Build:10.1.14,3090
    commit=10.1.14
    subdir=app
    gradle=cloudless

Build:10.1.15,3091
    commit=10.1.15
    subdir=app
    gradle=cloudless

Auto Update Mode:Version %v
Update Check Mode:Tags
Current Version:10.1.15
Current Version Code:3091
